Get samples of the probability of toxicity. — prob_tox_samples • escalation
…
    data-frame like object

data-frame like object

    Examples

# CRM example
skeleton <- c(0.05, 0.1, 0.25, 0.4, 0.6)
target <- 0.25
outcomes <- '1NNN 2NTN'
fit <- get_dfcrm(skeleton = skeleton, target = target) %>% fit(outcomes)
fit %>% prob_tox_samples()

#> # A tibble: 4,000 x 6
#>    .draw    `1`    `2`   `3`   `4`   `5`
#>    <chr>  <dbl>  <dbl> <dbl> <dbl> <dbl>
#>  1 1     0.305  0.402  0.577 0.696 0.817
#>  2 2     0.0510 0.102  0.252 0.403 0.602
#>  3 3     0.304  0.400  0.576 0.694 0.816
#>  4 4     0.242  0.336  0.518 0.648 0.785
#>  5 5     0.124  0.201  0.381 0.528 0.700
#>  6 6     0.0632 0.120  0.279 0.430 0.624
#>  7 7     0.0332 0.0730 0.207 0.353 0.559
#>  8 8     0.254  0.349  0.531 0.658 0.792
#>  9 9     0.0209 0.0511 0.167 0.306 0.517
#> 10 10    0.152  0.235  0.418 0.562 0.725
#> # … with 3,990 more rows
fit %>% prob_tox_samples(tall = TRUE)

#> # A tibble: 20,000 x 3
#>    .draw dose  prob_tox
#>    <chr> <chr>    <dbl>
#>  1 1     1      0.0209 
#>  2 2     1      0.0727 
#>  3 3     1      0.0423 
#>  4 4     1      0.0709 
#>  5 5     1      0.0367 
#>  6 6     1      0.0210 
#>  7 7     1      0.0563 
#>  8 8     1      0.109  
#>  9 9     1      0.0443 
#> 10 10    1      0.00162
#> # … with 19,990 more rows
…
                   gamma_mean = 0.7367, gamma_sd = 2.5423,
                   zeta_mean = 3.4181, zeta_sd = 2.4406,
                   eta_mean = 0, eta_sd = 0.2,
                   psi_mean = 0, psi_sd = 1)
real_doses = c(1.0, 2.0, 4.0, 6.6, 10.0)
model <- get_trialr_efftox(real_doses = real_doses,
                           efficacy_hurdle = 0.5, toxicity_hurdle = 0.3,
                           p_e = 0.1, p_t = 0.1,
                           eff0 = 0.5, tox1 = 0.65,
                           eff_star = 0.7, tox_star = 0.25,
                           priors = p, iter = 1000, chains = 1, seed = 2020)
x <- model %>% fit('1N 2E 3B')
prob_tox_samples(x, tall = TRUE)

#> # A tibble: 2,500 x 3
#>    .draw dose    prob_tox
#>    <chr> <chr>      <dbl>
#>  1 1     1     0.00000132
#>  2 2     1     0.0148    
#>  3 3     1     0.00774   
#>  4 4     1     0.000894  
#>  5 5     1     0.000643  
#>  6 6     1     0.0104    
#>  7 7     1     0.000533  
#>  8 8     1     0.00420   
#>  9 9     1     0.00273   
#> 10 10    1     0.0000878 
#> # … with 2,490 more rows
…
