Dose selector. — selector • escalation
…
#> [1] 0.1111111 0.6666667       NaN       NaN       NaN
fit %>% mean_prob_tox()
#> [1] 0.2069561 0.2979677 0.4824122 0.6176620 0.7644430
fit %>% median_prob_tox()
#> [1] 0.2069561 0.2979677 0.4824122 0.6176620 0.7644430
fit %>% dose_admissible()
#> [1] TRUE TRUE TRUE TRUE TRUE
fit %>% prob_tox_quantile(0.9)
#> [1] 0.3649670 0.4608277 0.6272346 0.7346974 0.8420860
fit %>% prob_tox_exceeds(0.5)
#> [1] 0.009230096 0.054695783 0.442521884 0.851725376 0.996745367
fit %>% supports_sampling()
#> [1] TRUE
fit %>% prob_tox_samples()
#> # A tibble: 4,000 × 6
#>    .draw     `1`    `2`    `3`   `4`   `5`
#>    <chr>   <dbl>  <dbl>  <dbl> <dbl> <dbl>
#>  1 1     0.00585 0.0192 0.0926 0.207 0.416
#>  2 2     0.170   0.256  0.440  0.581 0.739
#>  3 3     0.190   0.279  0.464  0.602 0.753
#>  4 4     0.0539  0.106  0.259  0.409 0.608
#>  5 5     0.0557  0.109  0.263  0.414 0.611
#>  6 6     0.339   0.435  0.606  0.718 0.831
#>  7 7     0.101   0.171  0.346  0.496 0.676
#>  8 8     0.125   0.202  0.382  0.530 0.702
#>  9 9     0.200   0.290  0.474  0.611 0.760
#> 10 10    0.171   0.257  0.442  0.583 0.740
#> # ℹ 3,990 more rows
…
