Simulated trials. — simulations • escalation
…
# Simulate performance of the 3+3 design:
true_prob_tox <- c(0.12, 0.27, 0.44, 0.53, 0.57)
sims <- get_three_plus_three(num_doses = 5) %>%
  simulate_trials(num_sims = 50, true_prob_tox = true_prob_tox)
# The returned object has type 'simulations'. The supported interface is:
sims %>% num_patients()
#>  [1]  9  9 12 12 12 12  6  3  9 15  9 12  9 12  6 18  9  6  6  9  6 12 18 15  9
#> [26] 15  9 15 12 18 12  6  9  6 18 12  9  9 15 12 12  9  6  9 12  6 12 24 18 12
sims %>% num_doses()
#> [1] 5
sims %>% dose_indices()
#> [1] 1 2 3 4 5
sims %>% n_at_dose()
#> # A tibble: 50 x 5
#>      `1`   `2`   `3`   `4`   `5`
#>    <int> <int> <int> <int> <int>
#>  1     3     3     3     0     0
#>  2     3     6     0     0     0
#>  3     3     6     3     0     0
#>  4     3     6     3     0     0
#>  5     3     3     6     0     0
#>  6     3     6     3     0     0
#>  7     6     0     0     0     0
#>  8     3     0     0     0     0
#>  9     3     3     3     0     0
#> 10     3     3     6     3     0
#> # … with 40 more rows
sims %>% tox_at_dose()
#> # A tibble: 50 x 5
#>      `1`   `2`   `3`   `4`   `5`
#>    <int> <int> <int> <int> <int>
#>  1     0     0     2     0     0
#>  2     0     2     0     0     0
#>  3     0     1     2     0     0
#>  4     0     1     2     0     0
#>  5     0     0     2     0     0
#>  6     0     1     3     0     0
#>  7     2     0     0     0     0
#>  8     2     0     0     0     0
#>  9     0     0     2     0     0
#> 10     0     0     1     2     0
#> # … with 40 more rows
…
