BOIN-COMB - Treatment Combination Designs • escalation
…
as_tibble returns one row for each dose in each
simulated iterate, offering a deep-dive into the simulated trials:

tibble::as_tibble(sims)
#> # A tibble: 160 × 12
#>    .iteration .depth  time dose     tox     n empiric_tox_rate mean_prob_tox
#>         <int>  <dbl> <dbl> <ord>  <dbl> <dbl>            <dbl>         <dbl>
#>  1          1      5  14.3 NoDose     0     0            0           0      
#>  2          1      5  14.3 1.1        0     6            0           0.00820
#>  3          1      5  14.3 1.2        2     3            0.667       0.619  
#>  4          1      5  14.3 1.3        0     0          NaN           0.619  
#>  5          1      5  14.3 1.4        0     0          NaN           0.619  
#>  6          1      5  14.3 1.5        0     0          NaN           0.619  
#>  7          1      5  14.3 2.1        0     3            0           0.0161 
#>  8          1      5  14.3 2.2        0     0          NaN           0.619  
#>  9          1      5  14.3 2.3        0     0          NaN           0.619  
#> 10          1      5  14.3 2.4        0     0          NaN           0.619  
#> # ℹ 150 more rows
#> # ℹ 4 more variables: median_prob_tox <dbl>, admissible <lgl>,
#> #   recommended <lgl>, true_prob_tox <dbl>
…
tibble::as_tibble(sims)
#> # A tibble: 150 × 22
#>    dose      n design.x hit.x design.y hit.y     X    X2     Y    Y2    XY  psi1
#>    <chr> <int> <ord>    <lgl> <ord>    <lgl> <int> <dbl> <int> <dbl> <int> <dbl>
#>  1 1.1       1 model2   FALSE model1   FALSE     0     0     0     0     0     0
#>  2 1.1       2 model2   FALSE model1   FALSE     0     0     0     0     0     0
#>  3 1.1       3 model2   FALSE model1   FALSE     0     0     0     0     0     0
#>  4 1.1       4 model2   FALSE model1   FALSE     0     0     0     0     0     0
#>  5 1.1       5 model2   FALSE model1   FALSE     0     0     0     0     0     0
#>  6 1.1       6 model2   FALSE model1   FALSE     0     0     0     0     0     0
#>  7 1.1       7 model2   FALSE model1   FALSE     0     0     0     0     0     0
#>  8 1.1       8 model2   FALSE model1   FALSE     0     0     0     0     0     0
#>  9 1.1       9 model2   FALSE model1   FALSE     0     0     0     0     0     0
#> 10 1.1      10 model2   FALSE model1   FALSE     0     0     0     0     0     0
#> # ℹ 140 more rows
#> # ℹ 10 more variables: psi2 <dbl>, v_psi1 <dbl>, v_psi2 <dbl>, cov_psi12 <dbl>,
#> #   delta <dbl>, v_delta <dbl>, se_delta <dbl>, delta_l <dbl>, delta_u <dbl>,
#> #   comparison <chr>
…
